PS7/ZAD1/simulation/qsim/PS7_ZAD1.msim.vcd
$comment
	File created using the following command:
		vcd file PS7_ZAD1.msim.vcd -direction
$end
$date
	Tue Apr 24 15:19:16 2018
$end
$version
	ModelSim Version 10.5b
$end
$timescale
	1ps
$end

$scope module PS7_ZAD1_vlg_vec_tst $end
$var reg 3 ! KEY [2:0] $end
$var reg 8 " SW [7:0] $end
$var wire 1 # HEX0 [0] $end
$var wire 1 $ HEX0 [1] $end
$var wire 1 % HEX0 [2] $end
$var wire 1 & HEX0 [3] $end
$var wire 1 ' HEX0 [4] $end
$var wire 1 ( HEX0 [5] $end
$var wire 1 ) HEX0 [6] $end
$var wire 1 * HEX1 [0] $end
$var wire 1 + HEX1 [1] $end
$var wire 1 , HEX1 [2] $end
$var wire 1 - HEX1 [3] $end
$var wire 1 . HEX1 [4] $end
$var wire 1 / HEX1 [5] $end
$var wire 1 0 HEX1 [6] $end
$var wire 1 1 HEX2 [0] $end
$var wire 1 2 HEX2 [1] $end
$var wire 1 3 HEX2 [2] $end
$var wire 1 4 HEX2 [3] $end
$var wire 1 5 HEX2 [4] $end
$var wire 1 6 HEX2 [5] $end
$var wire 1 7 HEX2 [6] $end
$var wire 1 8 HEX3 [0] $end
$var wire 1 9 HEX3 [1] $end
$var wire 1 : HEX3 [2] $end
$var wire 1 ; HEX3 [3] $end
$var wire 1 < HEX3 [4] $end
$var wire 1 = HEX3 [5] $end
$var wire 1 > HEX3 [6] $end
$var wire 1 ? LEDR [9] $end
$var wire 1 @ LEDR [8] $end
$var wire 1 A LEDR [7] $end
$var wire 1 B LEDR [6] $end
$var wire 1 C LEDR [5] $end
$var wire 1 D LEDR [4] $end
$var wire 1 E LEDR [3] $end
$var wire 1 F LEDR [2] $end
$var wire 1 G LEDR [1] $end
$var wire 1 H LEDR [0] $end

$scope module i1 $end
$var wire 1 I gnd $end
$var wire 1 J vcc $end
$var wire 1 K unknown $end
$var tri1 1 L devclrn $end
$var tri1 1 M devpor $end
$var tri1 1 N devoe $end
$var wire 1 O ~QUARTUS_CREATED_GND~I_combout $end
$var wire 1 P SW[0]~input_o $end
$var wire 1 Q SW[1]~input_o $end
$var wire 1 R SW[2]~input_o $end
$var wire 1 S SW[3]~input_o $end
$var wire 1 T SW[4]~input_o $end
$var wire 1 U SW[5]~input_o $end
$var wire 1 V SW[6]~input_o $end
$var wire 1 W SW[7]~input_o $end
$var wire 1 X KEY[1]~input_o $end
$var wire 1 Y KEY[1]~inputCLKENA0_outclk $end
$var wire 1 Z KEY[2]~input_o $end
$var wire 1 [ KEY[0]~input_o $end
$var wire 1 \ ex|B[3]~feeder_combout $end
$var wire 1 ] ex|B[2]~feeder_combout $end
$var wire 1 ^ ex|B[1]~feeder_combout $end
$var wire 1 _ ex|B[0]~feeder_combout $end
$var wire 1 ` ex|Add0~38_cout $end
$var wire 1 a ex|Add0~5_sumout $end
$var wire 1 b ex|Add0~6 $end
$var wire 1 c ex|Add0~9_sumout $end
$var wire 1 d ex|Add0~10 $end
$var wire 1 e ex|Add0~13_sumout $end
$var wire 1 f ex|Add0~14 $end
$var wire 1 g ex|Add0~17_sumout $end
$var wire 1 h ex|Add0~18 $end
$var wire 1 i ex|Add0~21_sumout $end
$var wire 1 j ex|Add0~22 $end
$var wire 1 k ex|Add0~25_sumout $end
$var wire 1 l ex|Add0~26 $end
$var wire 1 m ex|Add0~29_sumout $end
$var wire 1 n ex|Add0~30 $end
$var wire 1 o ex|Add0~33_sumout $end
$var wire 1 p ex|Add0~34 $end
$var wire 1 q ex|Add0~1_sumout $end
$var wire 1 r ex|carry~q $end
$var wire 1 s ex|overflow~0_combout $end
$var wire 1 t ex|overflow~q $end
$var wire 1 u d0|WideOr6~0_combout $end
$var wire 1 v d0|WideOr5~0_combout $end
$var wire 1 w d0|WideOr4~0_combout $end
$var wire 1 x d0|WideOr3~0_combout $end
$var wire 1 y d0|WideOr2~0_combout $end
$var wire 1 z d0|WideOr1~0_combout $end
$var wire 1 { d0|WideOr0~0_combout $end
$var wire 1 | d1|WideOr6~0_combout $end
$var wire 1 } d1|WideOr5~0_combout $end
$var wire 1 ~ d1|WideOr4~0_combout $end
$var wire 1 !! d1|WideOr3~0_combout $end
$var wire 1 "! d1|WideOr2~0_combout $end
$var wire 1 #! d1|WideOr1~0_combout $end
$var wire 1 $! d1|WideOr0~0_combout $end
$var wire 1 %! d2|WideOr6~0_combout $end
$var wire 1 &! d2|WideOr5~0_combout $end
$var wire 1 '! d2|WideOr4~0_combout $end
$var wire 1 (! d2|WideOr3~0_combout $end
$var wire 1 )! d2|WideOr2~0_combout $end
$var wire 1 *! d2|WideOr1~0_combout $end
$var wire 1 +! d2|WideOr0~0_combout $end
$var wire 1 ,! d3|WideOr6~0_combout $end
$var wire 1 -! d3|WideOr5~0_combout $end
$var wire 1 .! d3|WideOr4~0_combout $end
$var wire 1 /! d3|WideOr3~0_combout $end
$var wire 1 0! d3|WideOr2~0_combout $end
$var wire 1 1! d3|WideOr1~0_combout $end
$var wire 1 2! d3|WideOr0~0_combout $end
$var wire 1 3! ex|S [7] $end
$var wire 1 4! ex|S [6] $end
$var wire 1 5! ex|S [5] $end
$var wire 1 6! ex|S [4] $end
$var wire 1 7! ex|S [3] $end
$var wire 1 8! ex|S [2] $end
$var wire 1 9! ex|S [1] $end
$var wire 1 :! ex|S [0] $end
$var wire 1 ;! ex|B [7] $end
$var wire 1 <! ex|B [6] $end
$var wire 1 =! ex|B [5] $end
$var wire 1 >! ex|B [4] $end
$var wire 1 ?! ex|B [3] $end
$var wire 1 @! ex|B [2] $end
$var wire 1 A! ex|B [1] $end
$var wire 1 B! ex|B [0] $end
$upscope $end
$upscope $end
$enddefinitions $end
#0
$dumpvars
b0 !
b0 "
1)
0(
0'
0&
0%
0$
0#
10
0/
0.
0-
0,
0+
0*
17
06
05
04
03
02
01
1>
0=
0<
0;
0:
09
08
0H
0G
0F
0E
0D
0C
0B
0A
0@
0?
0I
1J
xK
1L
1M
1N
0O
0P
0Q
0R
0S
0T
0U
0V
0W
0X
0Y
0Z
0[
0\
0]
0^
0_
1`
0a
1b
0c
1d
0e
1f
0g
1h
0i
1j
0k
1l
0m
1n
0o
1p
0q
0r
0s
0t
0u
0v
0w
0x
0y
0z
0{
0|
0}
0~
0!!
0"!
0#!
0$!
0%!
0&!
0'!
0(!
0)!
0*!
0+!
0,!
0-!
0.!
0/!
00!
01!
02!
0:!
09!
08!
07!
06!
05!
04!
03!
0B!
0A!
0@!
0?!
0>!
0=!
0<!
0;!
$end
#5000
b100 !
b10000000 "
1Z
1W
1A
0p
0n
0l
0j
0h
0f
0d
0b
0`
1,!
1q
1o
1m
1k
1i
1g
1e
1c
1a
0>
0q
0o
0m
0k
0i
0g
0e
0c
0a
#10000
b110 !
b11000000 "
b10 !
b1000000 "
1X
0Z
1Y
1V
0W
0A
1B
1`
1q
1o
1m
1k
1i
1g
1e
1c
1a
12!
1/!
1.!
1<
1;
18
1b
0a
1d
0c
1f
0e
1h
0g
1j
0i
1l
0k
1n
0m
1p
0o
0q
#15000
b11 !
b1100000 "
b111 !
b11100000 "
1[
1Z
1U
1W
1A
1C
0p
0n
0l
0j
0h
0f
0d
0b
0`
1q
1o
1m
1k
1i
1g
1e
1c
1a
02!
11!
10!
0/!
0.!
0<
0;
1:
19
08
0q
0o
0m
0k
0i
0g
0e
0c
0a
#20000
b11110000 "
b101 !
b10110000 "
b1 !
b110000 "
0X
0Z
0Y
1T
0V
0W
0A
0B
1D
1`
1q
1o
1m
1k
1i
1g
1e
1c
1a
01!
00!
1.!
1-!
1=
1<
0:
09
1b
0a
1d
0c
1f
0e
1h
0g
1j
0i
1l
0k
1n
0m
1p
0o
0q
#25000
b111000 "
b101 !
b10111000 "
1Z
1S
1W
1A
1E
0p
0n
0l
0j
0h
0f
0d
0b
0`
1%!
1q
1o
1m
1k
1i
1g
1e
1c
1a
12!
11!
0.!
0-!
1\
0=
0<
19
18
07
0q
0o
0m
0k
0i
0g
0e
0c
0a
#30000
b10111100 "
b100 !
b10011100 "
b110 !
b11011100 "
b10 !
b1011100 "
0[
1X
0Z
1Y
1R
0U
1V
0W
0A
1B
0C
1F
1`
0%!
1q
1o
1m
1k
1i
1g
1e
1c
1a
02!
1.!
1*!
1)!
1]
13
12
1<
08
17
1b
0a
1d
0c
1f
0e
1h
0g
1j
0i
1l
0k
1n
0m
1p
0o
0q
#35000
b1011110 "
b110 !
b11011110 "
1Z
1Q
1W
1A
1G
0p
0n
0l
0j
0h
0f
0d
0b
0`
1%!
1q
1o
1m
1k
1i
1g
1e
1c
1a
12!
01!
0.!
1-!
1^
1=
0<
09
18
07
0q
0o
0m
0k
0i
0g
0e
0c
0a
#40000
b11011111 "
b11001111 "
b100 !
b10001111 "
b0 !
b1111 "
0X
0Z
0Y
1P
0T
0V
0W
0A
0B
0D
1H
1`
0,!
1q
1o
1m
1k
1i
1g
1e
1c
1a
02!
0-!
1(!
1_
14
0=
08
1>
1b
0a
1d
0c
1f
0e
1h
0g
1j
0i
1l
0k
1n
0m
1p
0o
0q
#45000
b1 !
b101111 "
b101 !
b10101111 "
1[
1Z
1U
1W
1A
1C
0p
0n
0l
0j
0h
0f
0d
0b
0`
1,!
1q
1o
1m
1k
1i
1g
1e
1c
1a
1/!
1;
0>
0q
0o
0m
0k
0i
0g
0e
0c
0a
#50000
b10100111 "
b111 !
b11100111 "
b11 !
b1100111 "
1X
0Z
1Y
0S
1V
0W
0A
1B
0E
1`
0%!
1q
1o
1m
1k
1i
1g
1e
1c
1a
11!
0/!
0*!
0)!
1'!
1&!
0\
16
15
03
02
0;
19
17
1b
0a
1d
0c
1f
0e
1h
0g
1j
0i
1l
0k
1n
0m
1p
0o
0q
1B!
1A!
1@!
1?!
1=!
1;!
0p
0l
0h
0f
0d
0b
1o
1k
1g
1e
1c
1a
0n
0j
1q
1m
1i
0g
0e
0c
0o
0k
#55000
b111 !
b11100111 "
1Z
1W
1A
1b
0`
0q
1o
0m
1k
0i
1g
1e
1c
0a
10!
1:
1d
0b
0c
1a
1f
0d
0e
1c
1h
0f
0g
1e
0h
1i
1g
0i
#60000
b11100011 "
b11110011 "
b110 !
b11010011 "
b100 !
b10010011 "
b0 !
b10011 "
0[
0X
0Z
0Y
0R
1T
0U
0V
0W
0A
0B
0C
1D
0F
1`
0,!
1%!
1q
0o
1m
0k
1i
0g
0e
0c
0a
12!
01!
00!
1/!
1.!
1-!
0(!
0]
04
1=
1<
1;
0:
09
18
07
1>
1a
0;!
0=!
0?!
0@!
0A!
0B!
1b
0a
1c
1e
1g
1k
1o
1d
0c
1f
0e
1h
0g
1j
0i
1l
0k
1n
0m
1p
0o
0q
#65000
b100 !
b10010011 "
1Z
1W
1A
0p
0n
0l
0j
0h
0f
0d
0b
0`
1,!
1q
1o
1m
1k
1i
1g
1e
1c
1a
02!
0/!
0-!
0=
0;
08
0>
0q
0o
0m
0k
0i
0g
0e
0c
0a
#70000
b10010001 "
b110 !
b11010001 "
b10 !
b1010001 "
1X
0Z
1Y
0Q
1V
0W
0A
1B
0G
1`
0%!
1q
1o
1m
1k
1i
1g
1e
1c
1a
11!
1+!
1(!
0^
14
11
19
17
1b
0a
1d
0c
1f
0e
1h
0g
1j
0i
1l
0k
1n
0m
1p
0o
0q
#75000
b1011001 "
b11 !
b1111001 "
b111 !
b11111001 "
1[
1Z
1S
1U
1W
1A
1C
1E
0p
0n
0l
0j
0h
0f
0d
0b
0`
1%!
1q
1o
1m
1k
1i
1g
1e
1c
1a
10!
1/!
0.!
0+!
0(!
0&!
1\
06
04
01
0<
1;
1:
07
0q
0o
0m
0k
0i
0g
0e
0c
0a
#80000
b11111000 "
b11101000 "
b101 !
b10101000 "
b1 !
b101000 "
0X
0Z
0Y
0P
0T
0V
0W
0A
0B
0D
0H
1`
1q
1o
1m
1k
1i
1g
1e
1c
1a
01!
0/!
1-!
0'!
0_
05
1=
0;
09
1b
0a
1d
0c
1f
0e
1h
0g
1j
0i
1l
0k
1n
0m
1p
0o
0q
#85000
b101 !
b10101000 "
1Z
1W
1A
0p
0n
0l
0j
0h
0f
0d
0b
0`
1q
1o
1m
1k
1i
1g
1e
1c
1a
00!
1/!
0-!
0=
1;
0:
0q
0o
0m
0k
0i
0g
0e
0c
0a
#90000
b10101100 "
b100 !
b10001100 "
b110 !
b11001100 "
b10 !
b1001100 "
0[
1X
0Z
1Y
1R
0U
1V
0W
0A
1B
0C
1F
1`
0%!
1q
1o
1m
1k
1i
1g
1e
1c
1a
12!
1.!
1*!
1)!
1]
13
12
1<
18
17
1b
0a
1d
0c
1f
0e
1h
0g
1j
0i
1l
0k
1n
0m
1p
0o
0q
#95000
b110 !
b11001100 "
1Z
1W
1A
0p
0n
0l
0j
0h
0f
0d
0b
0`
0,!
1q
1o
1m
1k
1i
1g
1e
1c
1a
02!
11!
10!
0/!
0.!
0<
0;
1:
19
08
1>
0q
0o
0m
0k
0i
0g
0e
0c
0a
