PS6/zad6/simulation/qsim/PS5_ZAD6.msim.vcd
$comment
	File created using the following command:
		vcd file PS5_ZAD6.msim.vcd -direction
$end
$date
	Tue May 15 17:55:05 2018
$end
$version
	ModelSim Version 10.5b
$end
$timescale
	1ps
$end

$scope module PS5_ZAD6_vlg_vec_tst $end
$var reg 1 ! CLOCK_50 $end
$var reg 2 " KEY [1:0] $end
$var reg 3 # SW [2:0] $end
$var wire 1 $ LEDG [2] $end
$var wire 1 % LEDG [1] $end
$var wire 1 & LEDG [0] $end
$var wire 1 ' LEDR [0] $end

$scope module i1 $end
$var wire 1 ( gnd $end
$var wire 1 ) vcc $end
$var wire 1 * unknown $end
$var tri1 1 + devclrn $end
$var tri1 1 , devpor $end
$var tri1 1 - devoe $end
$var wire 1 . ~QUARTUS_CREATED_GND~I_combout $end
$var wire 1 / CLOCK_50~input_o $end
$var wire 1 0 CLOCK_50~inputCLKENA0_outclk $end
$var wire 1 1 KEY[0]~input_o $end
$var wire 1 2 SW[2]~input_o $end
$var wire 1 3 SW[0]~input_o $end
$var wire 1 4 SW[1]~input_o $end
$var wire 1 5 counter~3_combout $end
$var wire 1 6 Q[3]~0_combout $end
$var wire 1 7 Q~3_combout $end
$var wire 1 8 Q~5_combout $end
$var wire 1 9 KEY[1]~input_o $end
$var wire 1 : counter~5_combout $end
$var wire 1 ; Add0~101_sumout $end
$var wire 1 < count[0]~feeder_combout $end
$var wire 1 = Add0~14 $end
$var wire 1 > Add0~17_sumout $end
$var wire 1 ? count[17]~DUPLICATE_q $end
$var wire 1 @ Add0~18 $end
$var wire 1 A Add0~9_sumout $end
$var wire 1 B Add0~10 $end
$var wire 1 C Add0~33_sumout $end
$var wire 1 D count[19]~DUPLICATE_q $end
$var wire 1 E Add0~34 $end
$var wire 1 F Add0~29_sumout $end
$var wire 1 G Add0~30 $end
$var wire 1 H Add0~25_sumout $end
$var wire 1 I Add0~26 $end
$var wire 1 J Add0~21_sumout $end
$var wire 1 K Add0~22 $end
$var wire 1 L Add0~5_sumout $end
$var wire 1 M count[23]~DUPLICATE_q $end
$var wire 1 N Add0~6 $end
$var wire 1 O Add0~37_sumout $end
$var wire 1 P Add0~38 $end
$var wire 1 Q Add0~1_sumout $end
$var wire 1 R LessThan0~2_combout $end
$var wire 1 S LessThan0~3_combout $end
$var wire 1 T LessThan0~4_combout $end
$var wire 1 U LessThan0~5_combout $end
$var wire 1 V Add0~102 $end
$var wire 1 W Add0~97_sumout $end
$var wire 1 X count[1]~feeder_combout $end
$var wire 1 Y Add0~98 $end
$var wire 1 Z Add0~93_sumout $end
$var wire 1 [ Add0~94 $end
$var wire 1 \ Add0~89_sumout $end
$var wire 1 ] count[3]~feeder_combout $end
$var wire 1 ^ Add0~90 $end
$var wire 1 _ Add0~85_sumout $end
$var wire 1 ` count[4]~feeder_combout $end
$var wire 1 a Add0~86 $end
$var wire 1 b Add0~81_sumout $end
$var wire 1 c Add0~82 $end
$var wire 1 d Add0~57_sumout $end
$var wire 1 e count[6]~feeder_combout $end
$var wire 1 f Add0~58 $end
$var wire 1 g Add0~61_sumout $end
$var wire 1 h Add0~62 $end
$var wire 1 i Add0~53_sumout $end
$var wire 1 j Add0~54 $end
$var wire 1 k Add0~49_sumout $end
$var wire 1 l count[9]~DUPLICATE_q $end
$var wire 1 m Add0~50 $end
$var wire 1 n Add0~45_sumout $end
$var wire 1 o Add0~46 $end
$var wire 1 p Add0~77_sumout $end
$var wire 1 q Add0~78 $end
$var wire 1 r Add0~69_sumout $end
$var wire 1 s count[12]~DUPLICATE_q $end
$var wire 1 t Add0~70 $end
$var wire 1 u Add0~73_sumout $end
$var wire 1 v Add0~74 $end
$var wire 1 w Add0~65_sumout $end
$var wire 1 x Add0~66 $end
$var wire 1 y Add0~41_sumout $end
$var wire 1 z Add0~42 $end
$var wire 1 { Add0~13_sumout $end
$var wire 1 | LessThan0~0_combout $end
$var wire 1 } LessThan0~1_combout $end
$var wire 1 ~ counter[2]~1_combout $end
$var wire 1 !! Selector0~0_combout $end
$var wire 1 "! Selector0~1_combout $end
$var wire 1 #! y_Q.A~q $end
$var wire 1 $! Selector0~2_combout $end
$var wire 1 %! Q~6_combout $end
$var wire 1 &! Q~4_combout $end
$var wire 1 '! Q[3]~1_combout $end
$var wire 1 (! counter[2]~0_combout $end
$var wire 1 )! Q[3]~2_combout $end
$var wire 1 *! counter~4_combout $end
$var wire 1 +! counter~2_combout $end
$var wire 1 ,! Selector1~0_combout $end
$var wire 1 -! y_Q.B~q $end
$var wire 1 .! Y_D.C~0_combout $end
$var wire 1 /! y_Q.C~q $end
$var wire 1 0! Y_D.D~0_combout $end
$var wire 1 1! y_Q.D~q $end
$var wire 1 2! Selector2~0_combout $end
$var wire 1 3! y_Q.E~q $end
$var wire 1 4! WideNor0~0_combout $end
$var wire 1 5! count [25] $end
$var wire 1 6! count [24] $end
$var wire 1 7! count [23] $end
$var wire 1 8! count [22] $end
$var wire 1 9! count [21] $end
$var wire 1 :! count [20] $end
$var wire 1 ;! count [19] $end
$var wire 1 <! count [18] $end
$var wire 1 =! count [17] $end
$var wire 1 >! count [16] $end
$var wire 1 ?! count [15] $end
$var wire 1 @! count [14] $end
$var wire 1 A! count [13] $end
$var wire 1 B! count [12] $end
$var wire 1 C! count [11] $end
$var wire 1 D! count [10] $end
$var wire 1 E! count [9] $end
$var wire 1 F! count [8] $end
$var wire 1 G! count [7] $end
$var wire 1 H! count [6] $end
$var wire 1 I! count [5] $end
$var wire 1 J! count [4] $end
$var wire 1 K! count [3] $end
$var wire 1 L! count [2] $end
$var wire 1 M! count [1] $end
$var wire 1 N! count [0] $end
$var wire 1 O! Q [3] $end
$var wire 1 P! Q [2] $end
$var wire 1 Q! Q [1] $end
$var wire 1 R! Q [0] $end
$var wire 1 S! counter [2] $end
$var wire 1 T! counter [1] $end
$var wire 1 U! counter [0] $end
$upscope $end
$upscope $end
$enddefinitions $end
#0
$dumpvars
0!
b0 "
b0 #
0&
0%
0$
0'
0(
1)
x*
1+
1,
1-
0.
0/
00
01
02
03
04
05
06
17
08
09
0:
1;
1<
0=
0>
0?
0@
0A
0B
0C
0D
0E
0F
0G
0H
0I
0J
0K
0L
0M
0N
0O
0P
0Q
1R
0S
0T
0U
0V
0W
0X
0Y
0Z
0[
0\
0]
0^
0_
0`
0a
0b
0c
0d
0e
0f
0g
0h
0i
0j
0k
0l
0m
0n
0o
0p
0q
0r
0s
0t
0u
0v
0w
0x
0y
0z
0{
0|
1}
0~
0!!
1"!
0#!
1$!
0%!
1&!
0'!
1(!
0)!
0*!
1+!
1,!
0-!
0.!
0/!
00!
01!
02!
03!
14!
0N!
0M!
0L!
0K!
0J!
0I!
0H!
0G!
0F!
0E!
0D!
0C!
0B!
0A!
0@!
0?!
0>!
0=!
0<!
0;!
0:!
09!
08!
07!
06!
05!
zR!
0Q!
0P!
0O!
0U!
0T!
0S!
$end
#5000
1!
b1 "
b1 #
1/
13
11
10
0+!
1:
07
16
1'!
0&!
1N!
1V
0;
1W
0<
1X
#10000
b11 "
b11 #
0!
b10 "
b10 #
03
14
01
19
0/
00
0,!
0$!
18
0"!
0(!
1%!
#15000
b110 #
1!
b11 "
b111 #
1/
11
13
12
10
08
06
0'!
0%!
1M!
0N!
0V
1;
1Y
0W
0Y
1W
1Z
0X
1<
0Z
1X
#20000
b1 "
b101 #
0!
b0 "
b100 #
03
04
01
09
0/
00
1,!
1$!
0:
15
1"!
1*!
1(!
#25000
1!
b1 "
b101 #
1/
13
11
10
1:
18
05
0*!
1N!
1V
0;
1Y
0W
0<
1Z
0X
#30000
b1 #
b11 "
b11 #
0!
b10 "
b10 #
01
19
03
14
02
0/
00
16
0,!
0$!
0"!
0(!
1'!
1%!
#35000
1!
b11 "
b11 #
1/
13
11
10
1+!
0:
08
15
1*!
0%!
1L!
0M!
0N!
0V
1;
0Y
1W
1[
0Z
0W
0[
1Z
1\
1X
1<
0\
1]
0X
0]
#40000
b1 "
b1 #
0!
b0 "
b0 #
03
04
01
09
0/
00
1,!
1$!
17
06
05
1"!
0*!
0'!
1&!
1(!
#45000
b100 #
1!
b1 "
b101 #
1/
11
13
12
10
0+!
1:
18
07
0&!
1N!
1V
0;
1W
0<
1X
#50000
b11 "
b111 #
0!
b10 "
b110 #
03
14
01
19
0/
00
0,!
0$!
1+!
0:
08
17
16
15
0"!
1*!
1'!
1&!
0(!
#55000
1!
b11 "
b111 #
1/
13
11
10
0+!
1:
07
06
05
0*!
0'!
0&!
1M!
0N!
0V
1;
1Y
0W
0Y
1W
1[
0Z
0X
1<
0[
1Z
1\
1X
0\
1]
0]
#60000
b11 #
b1 "
b1 #
0!
b0 "
b0 #
01
09
03
04
02
0/
00
1+!
0:
17
1,!
1$!
1"!
1(!
1&!
#65000
1!
b1 "
b1 #
1/
13
11
10
0+!
1:
07
16
1'!
0&!
1N!
1V
0;
1Y
0W
0<
1[
0Z
0X
1\
1]
#70000
b11 "
b11 #
0!
b10 "
b10 #
03
14
01
19
0/
00
0,!
0$!
18
0"!
0(!
1%!
#75000
b110 #
1!
b11 "
b111 #
1/
11
13
12
10
08
06
0'!
0%!
1K!
0L!
0M!
0N!
0V
1;
0Y
1W
0[
1Z
1^
0\
0W
0Z
0^
1\
1_
0]
1X
1<
0_
1`
1]
0X
0`
#80000
b1 "
b101 #
0!
b0 "
b100 #
03
04
01
09
0/
00
1,!
1$!
0:
15
1"!
1*!
1(!
#85000
1!
b1 "
b101 #
1/
13
11
10
1:
18
05
0*!
1N!
1V
0;
1W
0<
1X
#90000
b1 #
b11 "
b11 #
0!
b10 "
b10 #
01
19
03
14
02
0/
00
16
0,!
0$!
0"!
0(!
1'!
1%!
#95000
1!
b11 "
b11 #
1/
13
11
10
1+!
0:
08
15
1*!
0%!
1M!
0N!
0V
1;
1Y
0W
0Y
1W
1Z
0X
1<
0Z
1X
