PS6/zad4/simulation/qsim/PS6_ZAD4.msim.vcd
$comment
	File created using the following command:
		vcd file PS6_ZAD4.msim.vcd -direction
$end
$date
	Tue Apr 10 17:50:16 2018
$end
$version
	ModelSim Version 10.5b
$end
$timescale
	1ps
$end

$scope module PS6_ZAD4_vlg_vec_tst $end
$var reg 1 ! CLOCK_50 $end
$var reg 2 " KEY [1:0] $end
$var reg 3 # SW [2:0] $end
$var wire 1 $ LEDG [2] $end
$var wire 1 % LEDG [1] $end
$var wire 1 & LEDG [0] $end
$var wire 1 ' LEDR [0] $end

$scope module i1 $end
$var wire 1 ( gnd $end
$var wire 1 ) vcc $end
$var wire 1 * unknown $end
$var tri1 1 + devclrn $end
$var tri1 1 , devpor $end
$var tri1 1 - devoe $end
$var wire 1 . ~QUARTUS_CREATED_GND~I_combout $end
$var wire 1 / CLOCK_50~input_o $end
$var wire 1 0 CLOCK_50~inputCLKENA0_outclk $end
$var wire 1 1 KEY[1]~input_o $end
$var wire 1 2 KEY[0]~input_o $end
$var wire 1 3 SW[0]~input_o $end
$var wire 1 4 SW[1]~input_o $end
$var wire 1 5 SW[2]~input_o $end
$var wire 1 6 Y_D.C~0_combout $end
$var wire 1 7 Add0~101_sumout $end
$var wire 1 8 Add0~102 $end
$var wire 1 9 Add0~97_sumout $end
$var wire 1 : Add0~98 $end
$var wire 1 ; Add0~93_sumout $end
$var wire 1 < Add0~94 $end
$var wire 1 = Add0~89_sumout $end
$var wire 1 > Add0~90 $end
$var wire 1 ? Add0~85_sumout $end
$var wire 1 @ Add0~86 $end
$var wire 1 A Add0~81_sumout $end
$var wire 1 B Add0~82 $end
$var wire 1 C Add0~57_sumout $end
$var wire 1 D Add0~58 $end
$var wire 1 E Add0~61_sumout $end
$var wire 1 F Add0~62 $end
$var wire 1 G Add0~53_sumout $end
$var wire 1 H Add0~54 $end
$var wire 1 I Add0~49_sumout $end
$var wire 1 J Add0~50 $end
$var wire 1 K Add0~45_sumout $end
$var wire 1 L Add0~46 $end
$var wire 1 M Add0~69_sumout $end
$var wire 1 N Add0~70 $end
$var wire 1 O Add0~73_sumout $end
$var wire 1 P count[12]~DUPLICATE_q $end
$var wire 1 Q Add0~74 $end
$var wire 1 R Add0~65_sumout $end
$var wire 1 S Add0~66 $end
$var wire 1 T Add0~77_sumout $end
$var wire 1 U Add0~78 $end
$var wire 1 V Add0~41_sumout $end
$var wire 1 W Add0~42 $end
$var wire 1 X Add0~17_sumout $end
$var wire 1 Y Add0~18 $end
$var wire 1 Z Add0~13_sumout $end
$var wire 1 [ count[17]~DUPLICATE_q $end
$var wire 1 \ Add0~14 $end
$var wire 1 ] Add0~9_sumout $end
$var wire 1 ^ Add0~10 $end
$var wire 1 _ Add0~33_sumout $end
$var wire 1 ` Add0~34 $end
$var wire 1 a Add0~29_sumout $end
$var wire 1 b Add0~30 $end
$var wire 1 c Add0~25_sumout $end
$var wire 1 d Add0~26 $end
$var wire 1 e Add0~21_sumout $end
$var wire 1 f Add0~22 $end
$var wire 1 g Add0~5_sumout $end
$var wire 1 h count[23]~DUPLICATE_q $end
$var wire 1 i Add0~6 $end
$var wire 1 j Add0~37_sumout $end
$var wire 1 k Add0~38 $end
$var wire 1 l Add0~1_sumout $end
$var wire 1 m count[25]~DUPLICATE_q $end
$var wire 1 n LessThan0~0_combout $end
$var wire 1 o LessThan0~1_combout $end
$var wire 1 p count[10]~DUPLICATE_q $end
$var wire 1 q LessThan0~2_combout $end
$var wire 1 r LessThan0~3_combout $end
$var wire 1 s LessThan0~4_combout $end
$var wire 1 t LessThan0~5_combout $end
$var wire 1 u y_Q.C~q $end
$var wire 1 v Y_D.D~0_combout $end
$var wire 1 w y_Q.D~q $end
$var wire 1 x Selector2~0_combout $end
$var wire 1 y counter~4_combout $end
$var wire 1 z Selector0~2_combout $end
$var wire 1 { counter[2]~3_combout $end
$var wire 1 | y_Q.E~q $end
$var wire 1 } counter~1_combout $end
$var wire 1 ~ counter~2_combout $end
$var wire 1 !! Selector1~0_combout $end
$var wire 1 "! y_Q.B~q $end
$var wire 1 #! Selector2~1_combout $end
$var wire 1 $! Q~6_combout $end
$var wire 1 %! Q~5_combout $end
$var wire 1 &! Q~3_combout $end
$var wire 1 '! Q~4_combout $end
$var wire 1 (! Q[3]~0_combout $end
$var wire 1 )! Q[3]~1_combout $end
$var wire 1 *! counter[2]~0_combout $end
$var wire 1 +! Q[3]~2_combout $end
$var wire 1 ,! counter~5_combout $end
$var wire 1 -! Selector0~0_combout $end
$var wire 1 .! Selector0~1_combout $end
$var wire 1 /! y_Q.A~q $end
$var wire 1 0! WideNor0~0_combout $end
$var wire 1 1! count [25] $end
$var wire 1 2! count [24] $end
$var wire 1 3! count [23] $end
$var wire 1 4! count [22] $end
$var wire 1 5! count [21] $end
$var wire 1 6! count [20] $end
$var wire 1 7! count [19] $end
$var wire 1 8! count [18] $end
$var wire 1 9! count [17] $end
$var wire 1 :! count [16] $end
$var wire 1 ;! count [15] $end
$var wire 1 <! count [14] $end
$var wire 1 =! count [13] $end
$var wire 1 >! count [12] $end
$var wire 1 ?! count [11] $end
$var wire 1 @! count [10] $end
$var wire 1 A! count [9] $end
$var wire 1 B! count [8] $end
$var wire 1 C! count [7] $end
$var wire 1 D! count [6] $end
$var wire 1 E! count [5] $end
$var wire 1 F! count [4] $end
$var wire 1 G! count [3] $end
$var wire 1 H! count [2] $end
$var wire 1 I! count [1] $end
$var wire 1 J! count [0] $end
$var wire 1 K! Q [3] $end
$var wire 1 L! Q [2] $end
$var wire 1 M! Q [1] $end
$var wire 1 N! Q [0] $end
$var wire 1 O! counter [2] $end
$var wire 1 P! counter [1] $end
$var wire 1 Q! counter [0] $end
$upscope $end
$upscope $end
$enddefinitions $end
#0
$dumpvars
0!
b0 "
b0 #
0&
0%
0$
0'
0(
1)
x*
1+
1,
1-
0.
0/
00
01
02
03
04
05
06
17
08
09
0:
0;
0<
0=
0>
0?
0@
0A
0B
0C
0D
0E
0F
0G
0H
0I
0J
0K
0L
0M
0N
0O
0P
0Q
0R
0S
0T
0U
0V
0W
0X
0Y
0Z
0[
0\
0]
0^
0_
0`
0a
0b
0c
0d
0e
0f
0g
0h
0i
0j
0k
0l
0m
0n
1o
0p
1q
0r
0s
0t
0u
0v
0w
0x
0y
1z
0{
0|
1}
1~
1!!
0"!
0#!
0$!
0%!
1&!
1'!
1(!
1)!
1*!
0+!
0,!
0-!
1.!
0/!
10!
0J!
0I!
0H!
0G!
0F!
0E!
0D!
0C!
0B!
0A!
0@!
0?!
0>!
0=!
0<!
0;!
0:!
09!
08!
07!
06!
05!
04!
03!
02!
01!
0N!
0M!
0L!
0K!
0Q!
0P!
0O!
$end
#5000
1!
1/
10
1J!
18
07
19
#10000
b10 "
0!
11
0/
00
0.!
0z
0!!
0*!
1$!
#15000
b11 "
1!
12
1/
10
1I!
0J!
08
17
1:
09
0:
19
1;
0;
#20000
b100 #
b1 "
0!
01
15
0/
00
0(!
0&!
0}
1.!
1z
1%!
1y
1!!
1*!
0$!
1,!
0)!
0~
0'!
#25000
b110 #
1!
14
1/
10
1&!
1'!
1J!
18
07
1:
09
1;
#30000
b111 #
b0 "
b10 "
0!
02
11
13
0/
00
1(!
0&!
1}
0.!
0z
0%!
0y
0!!
0*!
1$!
0,!
1)!
1~
0'!
#35000
1!
1/
10
1H!
0I!
0J!
08
17
0:
19
1<
0;
09
0<
1;
1=
0=
#40000
b11 #
b0 "
0!
01
05
0/
00
0}
1.!
1z
1!!
1*!
0$!
1,!
0~
#45000
b1 "
1!
12
1/
10
1J!
18
07
19
#50000
b1 #
b11 "
0!
11
04
0/
00
0(!
1&!
0.!
0z
1y
0!!
0*!
0)!
1'!
#55000
1!
1/
10
1I!
0J!
08
17
1:
09
0:
19
1<
0;
0<
1;
1=
0=
#60000
b0 #
b100 #
b10 "
b0 "
0!
02
01
03
15
0/
00
0&!
1.!
1z
1%!
1!!
1*!
0'!
#65000
1!
1/
10
1J!
18
07
1:
09
1<
0;
1=
#70000
b10 "
0!
11
0/
00
0.!
0z
0!!
0*!
#75000
b110 #
b11 "
1!
12
14
1/
10
1&!
1'!
1G!
0H!
0I!
0J!
08
17
0:
19
0<
1>
1;
0=
09
0>
0;
1=
1?
0?
#80000
b10 #
b1 "
0!
01
05
0/
00
0&!
1.!
1z
0%!
1!!
1*!
0'!
#85000
1!
1/
10
1J!
18
07
19
#90000
b11 #
b0 "
b10 "
0!
02
11
13
0/
00
1(!
0.!
0z
0y
0!!
0*!
1)!
#95000
1!
1/
10
1I!
0J!
08
17
1:
09
0:
19
1;
0;
