PS6/zad2/simulation/qsim/PS6_ZAD2.msim.vcd
$comment
	File created using the following command:
		vcd file PS6_ZAD2.msim.vcd -direction
$end
$date
	Tue Apr 10 17:32:28 2018
$end
$version
	ModelSim Version 10.5b
$end
$timescale
	1ps
$end

$scope module PS6_ZAD2_vlg_vec_tst $end
$var reg 1 ! CLOCK_50 $end
$var reg 2 " KEY [1:0] $end
$var wire 1 # HEX0 [0] $end
$var wire 1 $ HEX0 [1] $end
$var wire 1 % HEX0 [2] $end
$var wire 1 & HEX0 [3] $end
$var wire 1 ' HEX0 [4] $end
$var wire 1 ( HEX0 [5] $end
$var wire 1 ) HEX0 [6] $end
$var wire 1 * HEX1 [0] $end
$var wire 1 + HEX1 [1] $end
$var wire 1 , HEX1 [2] $end
$var wire 1 - HEX1 [3] $end
$var wire 1 . HEX1 [4] $end
$var wire 1 / HEX1 [5] $end
$var wire 1 0 HEX1 [6] $end
$var wire 1 1 HEX2 [0] $end
$var wire 1 2 HEX2 [1] $end
$var wire 1 3 HEX2 [2] $end
$var wire 1 4 HEX2 [3] $end
$var wire 1 5 HEX2 [4] $end
$var wire 1 6 HEX2 [5] $end
$var wire 1 7 HEX2 [6] $end
$var wire 1 8 LEDR [1] $end
$var wire 1 9 LEDR [0] $end

$scope module i1 $end
$var wire 1 : gnd $end
$var wire 1 ; vcc $end
$var wire 1 < unknown $end
$var tri1 1 = devclrn $end
$var tri1 1 > devpor $end
$var tri1 1 ? devoe $end
$var wire 1 @ KEY[1]~input_o $end
$var wire 1 A ~QUARTUS_CREATED_GND~I_combout $end
$var wire 1 B CLOCK_50~input_o $end
$var wire 1 C CLOCK_50~inputCLKENA0_outclk $end
$var wire 1 D del|ex0|Add0~41_sumout $end
$var wire 1 E del|ex0|Add0~26 $end
$var wire 1 F del|ex0|Add0~21_sumout $end
$var wire 1 G del|ex0|Q[10]~DUPLICATE_q $end
$var wire 1 H del|ex0|Add0~22 $end
$var wire 1 I del|ex0|Add0~17_sumout $end
$var wire 1 J del|ex0|Add0~18 $end
$var wire 1 K del|ex0|Add0~85_sumout $end
$var wire 1 L del|ex0|Add0~86 $end
$var wire 1 M del|ex0|Add0~81_sumout $end
$var wire 1 N del|ex0|Q[3]~DUPLICATE_q $end
$var wire 1 O del|ex0|Equal0~4_combout $end
$var wire 1 P del|ex0|Add0~82 $end
$var wire 1 Q del|ex0|Add0~77_sumout $end
$var wire 1 R del|ex0|Add0~78 $end
$var wire 1 S del|ex0|Add0~73_sumout $end
$var wire 1 T del|ex0|Q[15]~DUPLICATE_q $end
$var wire 1 U del|ex0|Add0~74 $end
$var wire 1 V del|ex0|Add0~13_sumout $end
$var wire 1 W del|ex0|Add0~14 $end
$var wire 1 X del|ex0|Add0~69_sumout $end
$var wire 1 Y del|ex0|Q[17]~DUPLICATE_q $end
$var wire 1 Z del|ex0|Add0~70 $end
$var wire 1 [ del|ex0|Add0~9_sumout $end
$var wire 1 \ del|ex0|Add0~10 $end
$var wire 1 ] del|ex0|Add0~65_sumout $end
$var wire 1 ^ del|ex0|Q[19]~DUPLICATE_q $end
$var wire 1 _ del|ex0|Add0~66 $end
$var wire 1 ` del|ex0|Add0~61_sumout $end
$var wire 1 a del|ex0|Add0~62 $end
$var wire 1 b del|ex0|Add0~57_sumout $end
$var wire 1 c del|ex0|Add0~58 $end
$var wire 1 d del|ex0|Add0~53_sumout $end
$var wire 1 e del|ex0|Q[22]~DUPLICATE_q $end
$var wire 1 f del|ex0|Q[23]~DUPLICATE_q $end
$var wire 1 g del|ex0|Add0~54 $end
$var wire 1 h del|ex0|Add0~49_sumout $end
$var wire 1 i del|ex0|Add0~50 $end
$var wire 1 j del|ex0|Add0~5_sumout $end
$var wire 1 k del|ex0|Add0~6 $end
$var wire 1 l del|ex0|Add0~45_sumout $end
$var wire 1 m del|ex0|Q[25]~DUPLICATE_q $end
$var wire 1 n del|ex0|Equal0~2_combout $end
$var wire 1 o del|ex0|Equal0~1_combout $end
$var wire 1 p del|ex0|Equal0~3_combout $end
$var wire 1 q del|ex0|Equal0~5_combout $end
$var wire 1 r del|ex0|Add0~42 $end
$var wire 1 s del|ex0|Add0~37_sumout $end
$var wire 1 t del|ex0|Add0~38 $end
$var wire 1 u del|ex0|Add0~1_sumout $end
$var wire 1 v del|ex0|Add0~2 $end
$var wire 1 w del|ex0|Add0~101_sumout $end
$var wire 1 x del|ex0|Add0~102 $end
$var wire 1 y del|ex0|Add0~97_sumout $end
$var wire 1 z del|ex0|Add0~98 $end
$var wire 1 { del|ex0|Add0~93_sumout $end
$var wire 1 | del|ex0|Add0~94 $end
$var wire 1 } del|ex0|Add0~89_sumout $end
$var wire 1 ~ del|ex0|Add0~90 $end
$var wire 1 !! del|ex0|Add0~33_sumout $end
$var wire 1 "! del|ex0|Add0~34 $end
$var wire 1 #! del|ex0|Add0~29_sumout $end
$var wire 1 $! del|ex0|Add0~30 $end
$var wire 1 %! del|ex0|Add0~25_sumout $end
$var wire 1 &! del|ex0|Q[16]~DUPLICATE_q $end
$var wire 1 '! del|ex0|Equal0~0_combout $end
$var wire 1 (! del|ex1|Q~2_combout $end
$var wire 1 )! del|ex1|Q~1_combout $end
$var wire 1 *! del|ex1|Q~0_combout $end
$var wire 1 +! del|ex1|Q~3_combout $end
$var wire 1 ,! ex01|Q~1_combout $end
$var wire 1 -! KEY[0]~input_o $end
$var wire 1 .! ex01|Q~2_combout $end
$var wire 1 /! rtl~1_combout $end
$var wire 1 0! ex01|Q~0_combout $end
$var wire 1 1! ex01|Q~3_combout $end
$var wire 1 2! d0|LessThan0~0_combout $end
$var wire 1 3! d0|WideOr6~0_combout $end
$var wire 1 4! d0|WideOr5~0_combout $end
$var wire 1 5! d0|WideOr4~0_combout $end
$var wire 1 6! d0|WideOr3~0_combout $end
$var wire 1 7! d0|WideOr2~0_combout $end
$var wire 1 8! d0|WideOr1~0_combout $end
$var wire 1 9! d0|WideOr0~0_combout $end
$var wire 1 :! ex11|Q~1_combout $end
$var wire 1 ;! ex11|Q~2_combout $end
$var wire 1 <! ex11|Q~3_combout $end
$var wire 1 =! rtl~0_combout $end
$var wire 1 >! ex11|Q~0_combout $end
$var wire 1 ?! d1|WideOr6~0_combout $end
$var wire 1 @! d1|LessThan0~0_combout $end
$var wire 1 A! d1|WideOr5~0_combout $end
$var wire 1 B! d1|WideOr4~0_combout $end
$var wire 1 C! d1|WideOr3~0_combout $end
$var wire 1 D! d1|WideOr2~0_combout $end
$var wire 1 E! d1|WideOr1~0_combout $end
$var wire 1 F! d1|WideOr0~0_combout $end
$var wire 1 G! ex21|Q[0]~3_combout $end
$var wire 1 H! ex21|Q~0_combout $end
$var wire 1 I! ex21|Q~2_combout $end
$var wire 1 J! ex21|Q[2]~1_combout $end
$var wire 1 K! d2|WideOr6~0_combout $end
$var wire 1 L! d2|LessThan0~0_combout $end
$var wire 1 M! d2|WideOr5~0_combout $end
$var wire 1 N! d2|WideOr4~0_combout $end
$var wire 1 O! d2|WideOr3~0_combout $end
$var wire 1 P! d2|WideOr2~0_combout $end
$var wire 1 Q! d2|WideOr1~0_combout $end
$var wire 1 R! d2|WideOr0~0_combout $end
$var wire 1 S! ex21|Equal0~0_combout $end
$var wire 1 T! del|ex0|Q [25] $end
$var wire 1 U! del|ex0|Q [24] $end
$var wire 1 V! del|ex0|Q [23] $end
$var wire 1 W! del|ex0|Q [22] $end
$var wire 1 X! del|ex0|Q [21] $end
$var wire 1 Y! del|ex0|Q [20] $end
$var wire 1 Z! del|ex0|Q [19] $end
$var wire 1 [! del|ex0|Q [18] $end
$var wire 1 \! del|ex0|Q [17] $end
$var wire 1 ]! del|ex0|Q [16] $end
$var wire 1 ^! del|ex0|Q [15] $end
$var wire 1 _! del|ex0|Q [14] $end
$var wire 1 `! del|ex0|Q [13] $end
$var wire 1 a! del|ex0|Q [12] $end
$var wire 1 b! del|ex0|Q [11] $end
$var wire 1 c! del|ex0|Q [10] $end
$var wire 1 d! del|ex0|Q [9] $end
$var wire 1 e! del|ex0|Q [8] $end
$var wire 1 f! del|ex0|Q [7] $end
$var wire 1 g! del|ex0|Q [6] $end
$var wire 1 h! del|ex0|Q [5] $end
$var wire 1 i! del|ex0|Q [4] $end
$var wire 1 j! del|ex0|Q [3] $end
$var wire 1 k! del|ex0|Q [2] $end
$var wire 1 l! del|ex0|Q [1] $end
$var wire 1 m! del|ex0|Q [0] $end
$var wire 1 n! d2|HEX0 [0] $end
$var wire 1 o! d2|HEX0 [1] $end
$var wire 1 p! d2|HEX0 [2] $end
$var wire 1 q! d2|HEX0 [3] $end
$var wire 1 r! d2|HEX0 [4] $end
$var wire 1 s! d2|HEX0 [5] $end
$var wire 1 t! d2|HEX0 [6] $end
$var wire 1 u! d1|HEX0 [0] $end
$var wire 1 v! d1|HEX0 [1] $end
$var wire 1 w! d1|HEX0 [2] $end
$var wire 1 x! d1|HEX0 [3] $end
$var wire 1 y! d1|HEX0 [4] $end
$var wire 1 z! d1|HEX0 [5] $end
$var wire 1 {! d1|HEX0 [6] $end
$var wire 1 |! ex21|Q [3] $end
$var wire 1 }! ex21|Q [2] $end
$var wire 1 ~! ex21|Q [1] $end
$var wire 1 !" ex21|Q [0] $end
$var wire 1 "" d0|HEX0 [0] $end
$var wire 1 #" d0|HEX0 [1] $end
$var wire 1 $" d0|HEX0 [2] $end
$var wire 1 %" d0|HEX0 [3] $end
$var wire 1 &" d0|HEX0 [4] $end
$var wire 1 '" d0|HEX0 [5] $end
$var wire 1 (" d0|HEX0 [6] $end
$var wire 1 )" ex01|Q [3] $end
$var wire 1 *" ex01|Q [2] $end
$var wire 1 +" ex01|Q [1] $end
$var wire 1 ," ex01|Q [0] $end
$var wire 1 -" ex11|Q [3] $end
$var wire 1 ." ex11|Q [2] $end
$var wire 1 /" ex11|Q [1] $end
$var wire 1 0" ex11|Q [0] $end
$var wire 1 1" del|ex1|Q [0] $end
$upscope $end
$upscope $end
$enddefinitions $end
#0
$dumpvars
0!
b0 "
1)
0(
0'
0&
0%
0$
0#
10
0/
0.
0-
0,
0+
0*
17
06
05
04
03
02
01
19
08
0:
1;
x<
1=
1>
1?
0@
0A
0B
0C
1D
0E
0F
0G
0H
0I
0J
0K
0L
0M
0N
0O
0P
0Q
0R
0S
0T
0U
0V
0W
0X
0Y
0Z
0[
0\
0]
0^
0_
0`
0a
0b
0c
0d
0e
0f
0g
0h
0i
0j
0k
0l
0m
0n
1o
0p
0q
0r
0s
0t
0u
0v
0w
0x
0y
0z
0{
0|
0}
0~
0!!
0"!
0#!
0$!
0%!
0&!
1'!
1(!
1)!
1*!
1+!
0,!
0-!
0.!
1/!
10!
01!
02!
03!
04!
05!
06!
07!
08!
09!
0:!
0;!
0<!
1=!
1>!
0?!
0@!
0A!
0B!
0C!
0D!
0E!
0F!
1G!
0H!
0I!
0J!
0K!
0L!
0M!
0N!
0O!
0P!
0Q!
0R!
0S!
0m!
0l!
0k!
0j!
0i!
0h!
0g!
0f!
0e!
0d!
0c!
0b!
0a!
0`!
0_!
0^!
0]!
0\!
0[!
0Z!
0Y!
0X!
0W!
0V!
0U!
0T!
1t!
0s!
0r!
0q!
0p!
0o!
0n!
1{!
0z!
0y!
0x!
0w!
0v!
0u!
0!"
0~!
0}!
0|!
1("
0'"
0&"
0%"
0$"
0#"
0""
0,"
0+"
0*"
0)"
00"
0/"
0."
0-"
01"
$end
#5000
1!
1B
1C
1m!
11"
0*!
1r
0D
1s
0+!
#10000
b10 "
0!
1@
0B
0C
#15000
b11 "
1!
1-!
1B
1C
1l!
0m!
01"
0r
1t
1D
0s
0t
1s
1u
0u
#20000
b1 "
0!
0@
0B
0C
#25000
1!
1B
1C
1m!
1r
0D
1t
0s
1u
#30000
b0 "
b10 "
0!
0-!
1@
0B
0C
#35000
1!
1B
1C
1k!
0l!
0m!
1*!
0r
0t
1v
1D
1s
0u
0v
0s
1u
1w
0w
#40000
b0 "
0!
0@
0B
0C
#45000
b1 "
1!
1-!
1B
1C
1m!
0*!
1r
0D
1s
#50000
b11 "
0!
1@
0B
0C
#55000
1!
1B
1C
1l!
0m!
0r
1t
1D
0s
0t
1v
1s
0u
0v
1u
1w
0w
#60000
b10 "
b0 "
0!
0-!
0@
0B
0C
#65000
1!
1B
1C
1m!
1r
0D
1t
0s
1v
0u
1w
#70000
b10 "
0!
1@
0B
0C
#75000
b11 "
1!
1-!
1B
1C
1j!
0k!
0l!
0m!
1N
1*!
0r
0t
0v
0(!
1x
1D
1s
1u
0w
0x
0s
0u
1w
1y
0y
#80000
b1 "
0!
0@
0B
0C
#85000
1!
1B
1C
1m!
0*!
1r
0D
1s
#90000
b0 "
b10 "
0!
0-!
1@
0B
0C
#95000
1!
1B
1C
1l!
0m!
0r
1t
1D
0s
0t
1s
1u
0u
